  [
    {
      "title": "Mandy Moore",
      "img": "https://artist1.cdn107.com/cb1/cb18016ab6e631caf6bc71277965caa5_xl.jpg",
      "price": " 100 USD",
      "description": " Psychedelic Pop",
      "isFavorite": false,
      "id": 1
    },

    {
      "title": "Carly Pearce",
      "img": "https://artist1.cdn107.com/5ca/5ca45dd206679973c9d7cac193ec3091_xl.jpg",
      "price": " 85 USD",
      "description": " Country BBQ",
      "isFavorite": false,
      "id": 2
    },
    {
      "title": "Maddie & Tae",
      "img": "https://artist1.cdn107.com/5c8/5c894148f64d8df22dcba8ca5d5fb2b3_xl.jpg",
      "price": " 20 USD",
      "description": " Psychedelic Pop",
      "isFavorite": false,
      "id": 3
    },
    {
      "title": "The JaneDear Girls",
      "img": "https://artist1.cdn107.com/390/3907f30e4354c491b6deb3b2c0b2fea0_xl.jpg",
      "price": " 500 USD",
      "description": " Chill",
      "isFavorite": false,
      "id": 4
    },

    {
      "title": "Pistol Annies",
      "img": "https://artist1.cdn107.com/ee4/ee4e60521e4818fc6dde60853a543e27_xl.jpg",
      "price": " 100 USD",
      "description": " Psychedelic Pop",
      "isFavorite": false,
      "id": 5
    },

     {
      "title": "Danielle Bradbery",
      "img": "https://artist1.cdn107.com/8a0/8a0498c5736860a14d8e4db2c5bdd364_xl.jpg",
      "price": " 100 USD",
      "description": " Psychedelic Pop",
     "isFavorite": false,
      "id": 6
    },

    {
      "title": "Maren Morris",
      "img": "https://artist1.cdn107.com/89f/89fb2dc96c3ccac8f1b8110ec39df71b_xl.jpg",
      "price": " 100 USD",
      "description": " Psychedelic Pop",
     "isFavorite": false,
      "id": 7
    },
    {
      "title": "Jillian Jacqueline",
      "img": "https://artist1.cdn107.com/845/845896f33c996abba1140f4186d712e8_xl.jpg",
      "price": " 100 USD",
      "description": " Psychedelic Pop",
     "isFavorite": false,
      "id": 8
    },
    {
      "title": "Runaway June",
      "img": "https://artist1.cdn107.com/1c2/1c253ec11ea90350761dd7d88f0de077_lg.jpg",
      "price": " 100 USD",
      "description": " Psychedelic Pop",
     "isFavorite": false,
      "id": 9
    },

    {
      "title": "The Saturdays",
      "img": "https://artist1.cdn107.com/acb/acba6a79a00d2353158540cdcb94cab4_xl.jpg",
      "price": " 100 USD",
      "description": " Psychedelic Pop",
     "isFavorite": false,
      "id": 10
    }

]
  